{
   "experimentId":"5e959f9c9f4b120771249001",
   "experimentName":"TGFB1 experiment",
   "matrixPath":"biomage-source/basic-filtered.h5ad",
   "cellSets":[
      {
         "key":"louvain",
         "name":"Louvain clusters",
         "rootNode":true,
         "children":[
            {
               "key":"louvain-0",
               "name":"Cluster 0",
               "color":"#1f77b4",
               "cellIds":[0, 2, 5, 7, 11, 12, 15, 17, 21, 24, 25, 26, 27, 28, 35, 38, 42, 43, 44, 45, 46, 48, 53, 54, 57, 60, 61, 64, 66, 67, 68, 69, 70, 72, 74, 76, 77, 78, 83, 86, 87, 90, 96, 102, 108, 111, 112, 113, 116, 119, 125, 129, 130, 131, 132, 136, 137, 138, 140, 147, 151, 152, 153, 155, 156, 166, 167, 169, 170, 171, 172, 174, 176, 177, 182, 187, 189, 191, 198, 203, 204, 207, 210, 214, 217, 219, 220, 222, 223, 224, 225, 226, 228, 229, 230, 233, 235, 236, 237, 240, 243, 246, 248, 250, 252, 256, 260, 261, 262, 271, 274, 276, 278, 284, 285, 286, 291, 292, 294, 297, 298, 304, 305, 306, 307, 309, 314, 315, 316, 318, 320, 327, 330, 332, 333, 339, 342, 343, 344, 345, 347, 349, 350, 353, 356, 357, 358, 368, 369, 372, 375, 382, 383, 386, 390, 391, 392, 394, 395, 396, 399, 401, 406, 409, 412, 415, 416, 417, 421, 429, 433, 434, 435, 436, 438, 439, 442, 446, 448, 449, 450, 451, 452, 456, 457, 458, 460, 461, 462, 463, 464, 465, 466, 468, 469, 471, 473, 474, 475, 476, 479, 482, 483, 484, 485, 490, 492, 493, 494, 495, 497, 500, 501, 503, 511, 512, 516, 517, 518, 521, 522, 523, 524, 530, 532, 535, 536, 537, 538, 539, 542, 546, 547, 549, 551, 552, 555, 556, 558, 560, 562, 564, 565, 566, 567, 568, 571, 573, 574, 576, 582, 584, 585, 586, 595, 596, 598, 599, 602, 603, 604, 606, 609, 610, 612, 613, 614, 615, 618, 619, 620, 624, 627, 633, 643, 648, 651, 653, 654, 655, 660, 662, 666, 668, 670, 671, 673, 677, 685, 686, 688, 689, 691, 692, 693, 694, 698, 700, 703, 704, 708, 710, 711, 718, 719, 720, 721, 723, 725, 726, 730, 731, 733, 734, 740, 741, 742, 743, 747, 751, 753, 754, 755, 756, 757, 758, 761, 767, 768, 770, 771, 772, 775, 777, 779, 782, 784, 785, 787, 788, 791, 792, 799, 804, 806, 813, 815, 816, 820, 821, 824, 825, 826, 827, 828, 830, 831, 835, 838, 839, 840, 842, 845, 850, 855, 858, 860, 861, 862, 865, 867, 872, 874, 875, 879, 880, 881, 883, 884, 885, 888, 890, 892, 894, 896, 897, 901, 903, 904, 906, 907, 909, 915, 916, 917, 921, 922, 924, 925, 929, 931, 932, 934, 936, 938, 940, 941, 942, 943, 945, 946, 947, 950, 951, 959, 960, 962, 968, 969, 970, 975, 978, 982, 983, 986, 987, 989, 991, 997, 998, 1006, 1007, 1010, 1011, 1012, 1013, 1015, 1016, 1018, 1022, 1025, 1026, 1032, 1033, 1037, 1040, 1041, 1042, 1043, 1047, 1050, 1059, 1062, 1064, 1065, 1067, 1072, 1074, 1075, 1076, 1083, 1084, 1089, 1090, 1092, 1093, 1094, 1095, 1098, 1100, 1104, 1105, 1107, 1109, 1112, 1115, 1120, 1122, 1127, 1128, 1132, 1133, 1134, 1136, 1137, 1138, 1139, 1143, 1147, 1148, 1149, 1150, 1153, 1156, 1160, 1163, 1166, 1168, 1170, 1171, 1175, 1176, 1177, 1179, 1180, 1181, 1182, 1187, 1189, 1191, 1193, 1194, 1195, 1196, 1202, 1208, 1209, 1210, 1211, 1213, 1214, 1218, 1220, 1222, 1224, 1225, 1227, 1230, 1232, 1234, 1238, 1240, 1242, 1244, 1246, 1248, 1249, 1250, 1251, 1252, 1255, 1258, 1259, 1261, 1263, 1264, 1271, 1274, 1277, 1280, 1281, 1282, 1283, 1286, 1287, 1288, 1293, 1302, 1305, 1306, 1309, 1311, 1312, 1316, 1320, 1321, 1324, 1325, 1326, 1328, 1329, 1331, 1332, 1333, 1337, 1338, 1340, 1341, 1343, 1345, 1347, 1348, 1351, 1352, 1355, 1357, 1358, 1361, 1362, 1363, 1364, 1366, 1367, 1372, 1373, 1374, 1376, 1377, 1379, 1381, 1382, 1385, 1386, 1389, 1393, 1395, 1396, 1398, 1399, 1400, 1402, 1407, 1408, 1410, 1411, 1412, 1414, 1416, 1417, 1418, 1419, 1420, 1423, 1425, 1428, 1429, 1432, 1433, 1434, 1435, 1439, 1440, 1441, 1443, 1444, 1445, 1446, 1447, 1448, 1449, 1450, 1452, 1453, 1456, 1460, 1463, 1465, 1468, 1470, 1471, 1472, 1473, 1476, 1479, 1480, 1482, 1483, 1490, 1493, 1494, 1496, 1497, 1498, 1501, 1502, 1503, 1504, 1506, 1514, 1515, 1516, 1518, 1519, 1521, 1525, 1526, 1527, 1528, 1529, 1530, 1534, 1535, 1536, 1539, 1540, 1546, 1548, 1550, 1554, 1558, 1559, 1560, 1561, 1562, 1565, 1567, 1571, 1572, 1575, 1579, 1581, 1583, 1584, 1586, 1592, 1593, 1596, 1598, 1600, 1601, 1602, 1603, 1606, 1610, 1618, 1619, 1620, 1623, 1626, 1627, 1628, 1630, 1631, 1632, 1636, 1641, 1645, 1648, 1649, 1650, 1651, 1652, 1655, 1656, 1658, 1665, 1666, 1668, 1669, 1671, 1676, 1679, 1680, 1681, 1682, 1683, 1684, 1685, 1686, 1689, 1690, 1691, 1692, 1693, 1696, 1697, 1699, 1700, 1701, 1709, 1710, 1714, 1716, 1717, 1719, 1723, 1724, 1725, 1726, 1727, 1729, 1730, 1731, 1733, 1735, 1737, 1739, 1741, 1742, 1747, 1749, 1752, 1753, 1754, 1755, 1757, 1758, 1761, 1763, 1764, 1767, 1769, 1774, 1776, 1779, 1781, 1785, 1786, 1787, 1789, 1790, 1793, 1794, 1797, 1806, 1813, 1817, 1818, 1819, 1820, 1821, 1822, 1825, 1827, 1828, 1831, 1833, 1838, 1841, 1842, 1843, 1845, 1846, 1847, 1849, 1850, 1855, 1856, 1857, 1859, 1861, 1862, 1864, 1866, 1873, 1874, 1875, 1876, 1877, 1878, 1880, 1883, 1885, 1887, 1888, 1890, 1896, 1897, 1899, 1902, 1904, 1905, 1906, 1907, 1911, 1916, 1921, 1923, 1925, 1933, 1937, 1939, 1941, 1945, 1951, 1953, 1955, 1958, 1962, 1964, 1965, 1967, 1971, 1972, 1973, 1978, 1979, 1980, 1982, 1990, 1991, 1993, 1996, 1999, 2001, 2003, 2004, 2005, 2006, 2012, 2016, 2021, 2022, 2024, 2028, 2029, 2033, 2036, 2038, 2039, 2045, 2047, 2048, 2049, 2050, 2059, 2060, 2063, 2065, 2066, 2068, 2069, 2072, 2073, 2074, 2075, 2077, 2079, 2080, 2084, 2085, 2087, 2091, 2095, 2096, 2098, 2099, 2100, 2104, 2109, 2110, 2112, 2115, 2117, 2118, 2119, 2122, 2123, 2126, 2128, 2130, 2131, 2136, 2137, 2140, 2141, 2142, 2143, 2148, 2150, 2151, 2152, 2155, 2157, 2161, 2163, 2165, 2172, 2174, 2176, 2177, 2180, 2181, 2182, 2185, 2186, 2187, 2191, 2192, 2198, 2199, 2201, 2202, 2210, 2213, 2216, 2219, 2224, 2226, 2227, 2231, 2233, 2238, 2240, 2241, 2249, 2251, 2252, 2256, 2260, 2261, 2263, 2264, 2266, 2270, 2272, 2273, 2275, 2279, 2283, 2284, 2286, 2287, 2290, 2295, 2296, 2297, 2300, 2302, 2304, 2309, 2311, 2313, 2314, 2316, 2317, 2320, 2321, 2332, 2333, 2334, 2339, 2343, 2345, 2346, 2347, 2349, 2350, 2352, 2354, 2355, 2357, 2358, 2361, 2363, 2364, 2365, 2371, 2374, 2375, 2377, 2379, 2380, 2381, 2382, 2384, 2389, 2391, 2392, 2394, 2395, 2396, 2401, 2402, 2404, 2405, 2410, 2411, 2421, 2425, 2427, 2429, 2432, 2436, 2438, 2441, 2442, 2447, 2449, 2450, 2455, 2457, 2458, 2459, 2461, 2462, 2468, 2470, 2471, 2473, 2476, 2477, 2479, 2482, 2483, 2487, 2495, 2498, 2499, 2501, 2502, 2504, 2509, 2511, 2512, 2513, 2515, 2517, 2522, 2525, 2528, 2534, 2536, 2540, 2541, 2542, 2543, 2546, 2548, 2549, 2551, 2553, 2556, 2558, 2564, 2567, 2569, 2570, 2572, 2574, 2577, 2579, 2580, 2581, 2585, 2587, 2592, 2594, 2598, 2601, 2604, 2607, 2610, 2612, 2616, 2617, 2621, 2626, 2631, 2637]
            },
            {
               "key":"louvain-1",
               "name":"Cluster 1",
               "color":"#ff7f0e",
               "cellIds":[3, 13, 16, 22, 32, 34, 36, 47, 50, 56, 58, 59, 79, 80, 82, 84, 91, 94, 95, 97, 98, 101, 110, 114, 121, 126, 135, 148, 154, 159, 163, 173, 184, 188, 200, 205, 215, 216, 221, 234, 242, 245, 247, 254, 266, 267, 283, 289, 290, 302, 311, 319, 321, 322, 324, 335, 338, 341, 352, 354, 355, 367, 378, 381, 384, 387, 397, 398, 403, 410, 413, 424, 425, 430, 431, 441, 443, 467, 472, 502, 505, 507, 510, 514, 515, 540, 541, 548, 550, 553, 563, 575, 577, 581, 583, 587, 588, 591, 592, 593, 600, 601, 605, 607, 616, 617, 621, 634, 642, 650, 656, 657, 658, 659, 663, 664, 665, 672, 684, 696, 701, 705, 706, 707, 724, 727, 729, 732, 738, 745, 748, 750, 760, 776, 778, 783, 786, 789, 790, 793, 794, 796, 798, 810, 811, 812, 822, 823, 832, 836, 871, 893, 895, 898, 899, 902, 908, 911, 914, 923, 935, 939, 944, 955, 956, 957, 965, 972, 974, 979, 984, 985, 1000, 1001, 1003, 1004, 1014, 1020, 1021, 1023, 1027, 1030, 1031, 1036, 1038, 1046, 1051, 1052, 1053, 1056, 1060, 1061, 1069, 1073, 1077, 1078, 1081, 1082, 1087, 1091, 1106, 1111, 1117, 1118, 1119, 1126, 1141, 1144, 1151, 1155, 1158, 1162, 1165, 1167, 1185, 1192, 1205, 1206, 1212, 1216, 1226, 1228, 1233, 1236, 1254, 1257, 1265, 1269, 1272, 1278, 1284, 1289, 1295, 1296, 1297, 1301, 1315, 1317, 1322, 1323, 1327, 1334, 1335, 1339, 1342, 1344, 1349, 1354, 1356, 1365, 1380, 1383, 1387, 1397, 1401, 1405, 1406, 1415, 1427, 1455, 1459, 1461, 1464, 1466, 1475, 1477, 1478, 1481, 1487, 1492, 1511, 1512, 1517, 1524, 1531, 1537, 1538, 1543, 1549, 1552, 1563, 1566, 1569, 1570, 1585, 1587, 1590, 1591, 1594, 1599, 1605, 1607, 1613, 1617, 1624, 1625, 1629, 1633, 1635, 1644, 1646, 1647, 1654, 1661, 1662, 1664, 1667, 1670, 1698, 1704, 1711, 1722, 1728, 1732, 1744, 1748, 1751, 1759, 1766, 1770, 1771, 1772, 1775, 1777, 1780, 1782, 1784, 1792, 1798, 1799, 1802, 1804, 1811, 1814, 1815, 1826, 1829, 1832, 1844, 1867, 1870, 1871, 1879, 1884, 1886, 1893, 1908, 1910, 1912, 1914, 1917, 1918, 1920, 1926, 1929, 1935, 1936, 1944, 1946, 1948, 1950, 1954, 1957, 1959, 1968, 1983, 1984, 1989, 1997, 2017, 2027, 2032, 2034, 2041, 2042, 2046, 2051, 2053, 2055, 2058, 2061, 2062, 2067, 2078, 2081, 2092, 2093, 2094, 2097, 2101, 2113, 2116, 2120, 2124, 2138, 2159, 2170, 2179, 2183, 2195, 2204, 2209, 2221, 2223, 2225, 2229, 2235, 2239, 2242, 2257, 2259, 2268, 2276, 2280, 2282, 2294, 2303, 2306, 2324, 2326, 2327, 2328, 2329, 2335, 2336, 2338, 2353, 2356, 2362, 2368, 2369, 2370, 2378, 2397, 2415, 2416, 2417, 2422, 2433, 2435, 2437, 2440, 2448, 2452, 2460, 2463, 2489, 2490, 2500, 2505, 2507, 2514, 2516, 2520, 2521, 2527, 2531, 2537, 2538, 2539, 2544, 2550, 2555, 2557, 2559, 2563, 2566, 2573, 2578, 2582, 2584, 2596, 2600, 2605, 2608, 2611, 2622, 2624, 2625, 2629, 2633]
            },
            {
               "key":"louvain-2",
               "name":"Cluster 2",
               "color":"#2ca02c",
               "cellIds":[4, 6, 8, 14, 30, 33, 39, 40, 41, 62, 71, 73, 81, 100, 103, 104, 106, 120, 123, 124, 128, 133, 141, 142, 144, 145, 149, 150, 157, 158, 164, 168, 185, 186, 193, 194, 195, 196, 197, 199, 201, 202, 208, 209, 211, 212, 213, 227, 238, 263, 265, 269, 279, 282, 287, 296, 299, 300, 308, 310, 323, 329, 331, 334, 336, 340, 346, 348, 359, 362, 363, 364, 365, 373, 374, 379, 388, 393, 400, 405, 418, 420, 423, 432, 444, 447, 455, 459, 477, 481, 486, 487, 489, 491, 496, 498, 499, 506, 509, 519, 526, 527, 531, 533, 534, 543, 554, 557, 559, 579, 594, 608, 623, 625, 626, 630, 636, 641, 644, 647, 667, 674, 675, 676, 678, 682, 690, 695, 712, 714, 715, 717, 728, 735, 736, 737, 746, 752, 773, 781, 795, 797, 803, 805, 808, 814, 817, 818, 819, 829, 833, 837, 841, 843, 844, 846, 847, 848, 851, 852, 853, 863, 864, 870, 877, 878, 887, 889, 891, 900, 905, 910, 912, 913, 928, 937, 952, 953, 963, 967, 976, 977, 981, 992, 993, 994, 995, 1002, 1005, 1008, 1019, 1028, 1044, 1057, 1070, 1079, 1086, 1088, 1102, 1108, 1121, 1123, 1130, 1131, 1135, 1140, 1142, 1145, 1146, 1154, 1157, 1169, 1173, 1184, 1186, 1199, 1201, 1204, 1215, 1217, 1219, 1223, 1229, 1235, 1237, 1239, 1241, 1243, 1245, 1247, 1253, 1260, 1262, 1266, 1267, 1268, 1270, 1273, 1275, 1279, 1290, 1291, 1294, 1298, 1300, 1303, 1313, 1318, 1319, 1359, 1360, 1368, 1375, 1378, 1384, 1388, 1390, 1391, 1392, 1394, 1404, 1424, 1426, 1436, 1437, 1438, 1442, 1469, 1485, 1491, 1495, 1499, 1523, 1545, 1547, 1551, 1556, 1557, 1564, 1568, 1573, 1576, 1595, 1604, 1608, 1611, 1612, 1614, 1657, 1660, 1663, 1675, 1677, 1678, 1687, 1688, 1694, 1695, 1702, 1703, 1705, 1706, 1707, 1708, 1712, 1720, 1721, 1736, 1740, 1760, 1762, 1768, 1773, 1788, 1795, 1801, 1803, 1805, 1807, 1812, 1816, 1823, 1830, 1835, 1839, 1848, 1851, 1852, 1853, 1858, 1860, 1863, 1865, 1872, 1889, 1895, 1900, 1901, 1909, 1913, 1922, 1924, 1927, 1928, 1940, 1942, 1943, 1956, 1960, 1961, 1963, 1966, 1969, 1970, 1975, 1977, 1985, 1986, 1992, 1995, 1998, 2008, 2010, 2011, 2014, 2020, 2023, 2025, 2026, 2030, 2035, 2054, 2057, 2076, 2082, 2083, 2086, 2102, 2103, 2108, 2121, 2127, 2132, 2134, 2139, 2146, 2147, 2153, 2154, 2156, 2158, 2162, 2169, 2171, 2188, 2189, 2190, 2197, 2205, 2206, 2208, 2211, 2212, 2214, 2217, 2228, 2230, 2232, 2234, 2236, 2244, 2247, 2250, 2253, 2255, 2258, 2267, 2274, 2277, 2285, 2288, 2289, 2291, 2292, 2299, 2301, 2305, 2308, 2318, 2322, 2330, 2337, 2342, 2351, 2360, 2366, 2376, 2383, 2399, 2403, 2420, 2423, 2424, 2430, 2431, 2434, 2439, 2445, 2453, 2454, 2464, 2465, 2472, 2475, 2480, 2485, 2493, 2494, 2496, 2497, 2510, 2518, 2524, 2535, 2547, 2561, 2562, 2565, 2575, 2576, 2583, 2588, 2599, 2602, 2619, 2627]
            },
            {
               "key":"louvain-3",
               "name":"Cluster 3",
               "color":"#d62728",
               "cellIds":[1, 10, 18, 19, 20, 23, 31, 55, 75, 85, 88, 89, 92, 93, 105, 107, 117, 122, 127, 134, 139, 143, 146, 160, 162, 165, 178, 179, 181, 190, 192, 218, 231, 241, 249, 253, 257, 258, 272, 275, 280, 281, 288, 295, 303, 312, 313, 317, 325, 337, 351, 361, 366, 376, 377, 385, 389, 402, 407, 408, 411, 419, 422, 426, 427, 440, 454, 478, 488, 504, 508, 513, 520, 525, 561, 569, 572, 589, 590, 597, 628, 631, 637, 638, 639, 640, 646, 649, 652, 661, 679, 680, 681, 683, 687, 697, 699, 702, 709, 713, 716, 763, 764, 765, 780, 800, 801, 807, 809, 849, 854, 856, 857, 859, 866, 868, 869, 876, 886, 919, 920, 926, 927, 930, 933, 949, 958, 961, 964, 966, 980, 988, 996, 999, 1009, 1024, 1034, 1035, 1039, 1045, 1049, 1054, 1058, 1063, 1066, 1068, 1080, 1085, 1096, 1097, 1110, 1113, 1116, 1124, 1125, 1129, 1152, 1159, 1164, 1174, 1178, 1183, 1197, 1198, 1203, 1207, 1221, 1276, 1285, 1299, 1307, 1308, 1314, 1330, 1369, 1371, 1409, 1413, 1422, 1430, 1431, 1457, 1462, 1488, 1489, 1500, 1505, 1509, 1513, 1520, 1532, 1533, 1541, 1542, 1553, 1555, 1574, 1577, 1578, 1580, 1582, 1615, 1616, 1621, 1637, 1638, 1639, 1640, 1643, 1672, 1674, 1715, 1738, 1743, 1750, 1756, 1765, 1783, 1791, 1796, 1808, 1809, 1810, 1824, 1834, 1836, 1869, 1881, 1882, 1892, 1894, 1898, 1903, 1915, 1919, 1930, 1931, 1932, 1934, 1947, 1949, 1974, 1987, 1994, 2000, 2007, 2009, 2013, 2019, 2037, 2040, 2044, 2052, 2056, 2070, 2071, 2089, 2106, 2107, 2111, 2114, 2125, 2129, 2133, 2135, 2144, 2145, 2160, 2164, 2166, 2167, 2173, 2175, 2184, 2200, 2218, 2220, 2222, 2246, 2248, 2254, 2269, 2271, 2281, 2298, 2307, 2310, 2312, 2315, 2325, 2331, 2344, 2348, 2359, 2373, 2385, 2387, 2390, 2393, 2407, 2408, 2409, 2412, 2413, 2414, 2418, 2426, 2443, 2444, 2446, 2451, 2467, 2474, 2486, 2488, 2503, 2519, 2523, 2526, 2529, 2532, 2533, 2554, 2560, 2586, 2590, 2593, 2595, 2609, 2613, 2614, 2615, 2618, 2620, 2628, 2630, 2634, 2635, 2636]
            },
            {
               "key":"louvain-4",
               "name":"Cluster 4",
               "color":"#9467bd",
               "cellIds":[9, 29, 37, 49, 51, 52, 63, 65, 115, 118, 180, 183, 206, 232, 239, 255, 259, 268, 273, 293, 301, 328, 360, 371, 380, 404, 414, 428, 445, 453, 470, 480, 528, 529, 545, 570, 611, 622, 632, 635, 645, 669, 739, 749, 759, 762, 769, 774, 802, 834, 873, 882, 918, 954, 971, 973, 990, 1017, 1029, 1048, 1055, 1071, 1099, 1101, 1103, 1114, 1161, 1188, 1190, 1231, 1256, 1292, 1304, 1310, 1336, 1346, 1353, 1370, 1403, 1421, 1451, 1454, 1467, 1474, 1486, 1507, 1508, 1544, 1589, 1609, 1622, 1634, 1642, 1653, 1673, 1713, 1718, 1746, 1837, 1854, 1868, 1938, 1952, 1981, 1988, 2002, 2018, 2031, 2064, 2088, 2090, 2105, 2149, 2178, 2193, 2194, 2196, 2203, 2207, 2215, 2237, 2243, 2245, 2262, 2265, 2278, 2293, 2323, 2340, 2341, 2367, 2372, 2386, 2388, 2400, 2406, 2419, 2428, 2456, 2466, 2478, 2481, 2484, 2491, 2492, 2545, 2568, 2571, 2589, 2591, 2603, 2606]
            },
            {
               "key":"louvain-5",
               "name":"Cluster 5",
               "color":"#8c564b",
               "cellIds":[99, 109, 161, 175, 251, 277, 326, 370, 437, 578, 580, 722, 766, 948, 1172, 1200, 1350, 1458, 1484, 1510, 1597, 1659, 1745, 1800, 1891, 2015, 2168, 2319, 2398, 2469, 2508, 2530, 2552, 2597, 2623, 2632]
            },
            {
               "key":"louvain-6",
               "name":"Cluster 6",
               "color":"#e377c2",
               "cellIds":[244, 264, 270, 544, 629, 744, 1522, 1588, 1734, 1778, 1840, 1976, 2043, 2506]
            }
         ]
      },
      {
         "key":"scratchpad",
         "name":"Scratchpad",
         "rootNode":true
      }
   ]
}